<?xml version="1.0" encoding="UTF-8" standalone="no"?>
<!-- Created with Inkscape (http://www.inkscape.org/) -->

<svg
   xmlns:osb="http://www.openswatchbook.org/uri/2009/osb"
   xmlns:dc="http://purl.org/dc/elements/1.1/"
   xmlns:cc="http://creativecommons.org/ns#"
   xmlns:rdf="http://www.w3.org/1999/02/22-rdf-syntax-ns#"
   xmlns:svg="http://www.w3.org/2000/svg"
   xmlns="http://www.w3.org/2000/svg"
   xmlns:xlink="http://www.w3.org/1999/xlink"
   xmlns:sodipodi="http://sodipodi.sourceforge.net/DTD/sodipodi-0.dtd"
   xmlns:inkscape="http://www.inkscape.org/namespaces/inkscape"
   width="744.09448819"
   height="1052.3622047"
   id="svg3106"
   version="1.1"
   inkscape:version="0.48.2 r9819"
   sodipodi:docname="controls.svg">
  <defs
     id="defs3108">
    <inkscape:perspective
       sodipodi:type="inkscape:persp3d"
       inkscape:vp_x="435.80953 : 574.06633 : 1"
       inkscape:vp_y="0 : -1000 : 0"
       inkscape:vp_z="150.06791 : 557.90388 : 1"
       inkscape:persp3d-origin="129.55192 : 850.47528 : 1"
       id="perspective3173" />
    <inkscape:perspective
       sodipodi:type="inkscape:persp3d"
       inkscape:vp_x="446.66867 : 579.97951 : 1"
       inkscape:vp_y="0 : -1028.2686 : 0"
       inkscape:vp_z="160.92705 : 563.36017 : 1"
       inkscape:persp3d-origin="140.41106 : 864.20215 : 1"
       id="perspective3157" />
    <inkscape:perspective
       sodipodi:type="inkscape:persp3d"
       inkscape:vp_x="435.55699 : 572.29856 : 1"
       inkscape:vp_y="0 : -1000 : 0"
       inkscape:vp_z="149.81537 : 556.13611 : 1"
       inkscape:persp3d-origin="129.29938 : 848.70751 : 1"
       id="perspective3099" />
    <linearGradient
       id="linearGradient3949"
       osb:paint="solid">
      <stop
         style="stop-color:#ff7e00;stop-opacity:1;"
         offset="0"
         id="stop3951" />
    </linearGradient>
    <linearGradient
       id="linearGradient3985">
      <stop
         id="stop3987"
         offset="0"
         style="stop-color:#fd0c0c;stop-opacity:1;" />
      <stop
         style="stop-color:#efa90a;stop-opacity:0.49803922;"
         offset="0.5138889"
         id="stop3989" />
      <stop
         id="stop3991"
         offset="1"
         style="stop-color:#ff0000;stop-opacity:1;" />
    </linearGradient>
    <linearGradient
       id="linearGradient3920">
      <stop
         style="stop-color:#fda60c;stop-opacity:1;"
         offset="0"
         id="stop3922" />
      <stop
         id="stop3928"
         offset="0.5138889"
         style="stop-color:#efa90a;stop-opacity:0.49803922;" />
      <stop
         style="stop-color:#ffa100;stop-opacity:1;"
         offset="1"
         id="stop3924" />
    </linearGradient>
    <linearGradient
       inkscape:collect="always"
       id="linearGradient3898">
      <stop
         style="stop-color:#ffffff;stop-opacity:1;"
         offset="0"
         id="stop3900" />
      <stop
         style="stop-color:#ffffff;stop-opacity:0;"
         offset="1"
         id="stop3902" />
    </linearGradient>
    <radialGradient
       inkscape:collect="always"
       xlink:href="#linearGradient3898"
       id="radialGradient3904"
       cx="110"
       cy="122.36218"
       fx="110"
       fy="122.36218"
       r="62.642857"
       gradientUnits="userSpaceOnUse"
       gradientTransform="matrix(-0.04590543,2.9990129,-3.2916965,-0.05037467,517.82876,-201.36528)" />
    <radialGradient
       inkscape:collect="always"
       xlink:href="#linearGradient3898"
       id="radialGradient3933"
       gradientUnits="userSpaceOnUse"
       gradientTransform="matrix(-0.04590543,2.9990129,-3.2916965,-0.05037467,517.82876,-201.36528)"
       cx="110"
       cy="122.36218"
       fx="110"
       fy="122.36218"
       r="62.642857" />
    <radialGradient
       inkscape:collect="always"
       xlink:href="#linearGradient3898"
       id="radialGradient3963"
       gradientUnits="userSpaceOnUse"
       gradientTransform="matrix(-0.04590543,2.9990129,-3.2916965,-0.05037467,517.82876,-201.36528)"
       cx="110"
       cy="122.36218"
       fx="110"
       fy="122.36218"
       r="62.642857" />
    <radialGradient
       inkscape:collect="always"
       xlink:href="#linearGradient3898-6"
       id="radialGradient3963-5"
       gradientUnits="userSpaceOnUse"
       gradientTransform="matrix(-0.04590543,2.9990129,-3.2916965,-0.05037467,517.82876,-201.36528)"
       cx="110"
       cy="122.36218"
       fx="110"
       fy="122.36218"
       r="62.642857" />
    <linearGradient
       inkscape:collect="always"
       id="linearGradient3898-6">
      <stop
         style="stop-color:#ffffff;stop-opacity:1;"
         offset="0"
         id="stop3900-5" />
      <stop
         style="stop-color:#ffffff;stop-opacity:0;"
         offset="1"
         id="stop3902-4" />
    </linearGradient>
    <radialGradient
       r="62.642857"
       fy="122.36218"
       fx="110"
       cy="122.36218"
       cx="110"
       gradientTransform="matrix(-0.04590543,2.9990129,-3.2916965,-0.05037467,517.82876,-201.36528)"
       gradientUnits="userSpaceOnUse"
       id="radialGradient3996"
       xlink:href="#linearGradient3898-6"
       inkscape:collect="always" />
    <radialGradient
       inkscape:collect="always"
       xlink:href="#linearGradient3898-6"
       id="radialGradient3022"
       gradientUnits="userSpaceOnUse"
       gradientTransform="matrix(-0.04590543,2.9990129,-3.2916965,-0.05037467,517.82876,-201.36528)"
       cx="110"
       cy="122.36218"
       fx="110"
       fy="122.36218"
       r="62.642857" />
    <radialGradient
       inkscape:collect="always"
       xlink:href="#linearGradient3898-2"
       id="radialGradient3904-2"
       cx="110"
       cy="122.36218"
       fx="110"
       fy="122.36218"
       r="62.642857"
       gradientUnits="userSpaceOnUse"
       gradientTransform="matrix(-0.04590543,2.9990129,-3.2916965,-0.05037467,517.82876,-201.36528)" />
    <linearGradient
       inkscape:collect="always"
       id="linearGradient3898-2">
      <stop
         style="stop-color:#ffffff;stop-opacity:1;"
         offset="0"
         id="stop3900-4" />
      <stop
         style="stop-color:#ffffff;stop-opacity:0;"
         offset="1"
         id="stop3902-9" />
    </linearGradient>
    <radialGradient
       r="62.642857"
       fy="122.36218"
       fx="110"
       cy="122.36218"
       cx="110"
       gradientTransform="matrix(-0.04590543,2.9990129,-3.2916965,-0.05037467,517.82876,-201.36528)"
       gradientUnits="userSpaceOnUse"
       id="radialGradient3048"
       xlink:href="#linearGradient3898-2"
       inkscape:collect="always" />
    <radialGradient
       inkscape:collect="always"
       xlink:href="#linearGradient3898-7"
       id="radialGradient3904-1"
       cx="110"
       cy="122.36218"
       fx="110"
       fy="122.36218"
       r="62.642857"
       gradientUnits="userSpaceOnUse"
       gradientTransform="matrix(-0.04590543,2.9990129,-3.2916965,-0.05037467,517.82876,-201.36528)" />
    <linearGradient
       inkscape:collect="always"
       id="linearGradient3898-7">
      <stop
         style="stop-color:#ffffff;stop-opacity:1;"
         offset="0"
         id="stop3900-40" />
      <stop
         style="stop-color:#ffffff;stop-opacity:0;"
         offset="1"
         id="stop3902-94" />
    </linearGradient>
    <linearGradient
       inkscape:collect="always"
       xlink:href="#linearGradient3920-8"
       id="linearGradient3926-4"
       x1="511.07141"
       y1="314.14792"
       x2="532.5"
       y2="314.14789"
       gradientUnits="userSpaceOnUse" />
    <linearGradient
       id="linearGradient3920-8">
      <stop
         style="stop-color:#fda60c;stop-opacity:1;"
         offset="0"
         id="stop3922-8" />
      <stop
         id="stop3928-2"
         offset="0.5138889"
         style="stop-color:#efa90a;stop-opacity:0.49803922;" />
      <stop
         style="stop-color:#ffa100;stop-opacity:1;"
         offset="1"
         id="stop3924-4" />
    </linearGradient>
    <linearGradient
       inkscape:collect="always"
       xlink:href="#linearGradient3985"
       id="linearGradient3979"
       gradientUnits="userSpaceOnUse"
       gradientTransform="translate(-0.27775302,-0.1785714)"
       x1="511.07141"
       y1="314.14792"
       x2="532.5"
       y2="314.14789" />
    <linearGradient
       inkscape:collect="always"
       xlink:href="#linearGradient3920"
       id="linearGradient3983"
       gradientUnits="userSpaceOnUse"
       gradientTransform="translate(-0.27782589,0)"
       x1="511.07141"
       y1="314.14792"
       x2="532.5"
       y2="314.14789" />
    <linearGradient
       inkscape:collect="always"
       xlink:href="#linearGradient3920-1"
       id="linearGradient3983-5"
       gradientUnits="userSpaceOnUse"
       gradientTransform="translate(-0.27782589,0)"
       x1="511.07141"
       y1="314.14792"
       x2="532.5"
       y2="314.14789" />
    <linearGradient
       id="linearGradient3920-1">
      <stop
         style="stop-color:#fda60c;stop-opacity:1;"
         offset="0"
         id="stop3922-7" />
      <stop
         id="stop3928-1"
         offset="0.5138889"
         style="stop-color:#efa90a;stop-opacity:0.49803922;" />
      <stop
         style="stop-color:#ffa100;stop-opacity:1;"
         offset="1"
         id="stop3924-1" />
    </linearGradient>
    <linearGradient
       inkscape:collect="always"
       xlink:href="#linearGradient3985-2"
       id="linearGradient3979-5"
       gradientUnits="userSpaceOnUse"
       gradientTransform="translate(-0.27775302,-0.1785714)"
       x1="511.07141"
       y1="314.14792"
       x2="532.5"
       y2="314.14789" />
    <linearGradient
       id="linearGradient3985-2">
      <stop
         id="stop3987-7"
         offset="0"
         style="stop-color:#fd0c0c;stop-opacity:1;" />
      <stop
         style="stop-color:#efa90a;stop-opacity:0.49803922;"
         offset="0.5138889"
         id="stop3989-6" />
      <stop
         id="stop3991-1"
         offset="1"
         style="stop-color:#ff0000;stop-opacity:1;" />
    </linearGradient>
    <linearGradient
       inkscape:collect="always"
       xlink:href="#linearGradient3920-16"
       id="linearGradient3983-2"
       gradientUnits="userSpaceOnUse"
       gradientTransform="translate(-0.27782589,0)"
       x1="511.07141"
       y1="314.14792"
       x2="532.5"
       y2="314.14789" />
    <linearGradient
       id="linearGradient3920-16">
      <stop
         style="stop-color:#fda60c;stop-opacity:1;"
         offset="0"
         id="stop3922-85" />
      <stop
         id="stop3928-7"
         offset="0.5138889"
         style="stop-color:#efa90a;stop-opacity:0.49803922;" />
      <stop
         style="stop-color:#ffa100;stop-opacity:1;"
         offset="1"
         id="stop3924-6" />
    </linearGradient>
    <linearGradient
       inkscape:collect="always"
       xlink:href="#linearGradient3985-8"
       id="linearGradient3979-1"
       gradientUnits="userSpaceOnUse"
       gradientTransform="translate(-0.27775302,-0.1785714)"
       x1="511.07141"
       y1="314.14792"
       x2="532.5"
       y2="314.14789" />
    <linearGradient
       id="linearGradient3985-8">
      <stop
         id="stop3987-9"
         offset="0"
         style="stop-color:#fd0c0c;stop-opacity:1;" />
      <stop
         style="stop-color:#efa90a;stop-opacity:0.49803922;"
         offset="0.5138889"
         id="stop3989-2" />
      <stop
         id="stop3991-7"
         offset="1"
         style="stop-color:#ff0000;stop-opacity:1;" />
    </linearGradient>
    <linearGradient
       inkscape:collect="always"
       xlink:href="#linearGradient3949"
       id="linearGradient3953"
       x1="482.71832"
       y1="314.05909"
       x2="504.97669"
       y2="314.05909"
       gradientUnits="userSpaceOnUse" />
    <linearGradient
       inkscape:collect="always"
       xlink:href="#linearGradient3949"
       id="linearGradient3955"
       x1="457.42547"
       y1="314.05909"
       x2="479.68383"
       y2="314.05909"
       gradientUnits="userSpaceOnUse" />
    <linearGradient
       inkscape:collect="always"
       xlink:href="#linearGradient3949"
       id="linearGradient3957"
       x1="432.13262"
       y1="314.05908"
       x2="454.39098"
       y2="314.05908"
       gradientUnits="userSpaceOnUse" />
    <radialGradient
       inkscape:collect="always"
       xlink:href="#linearGradient3898-7"
       id="radialGradient3097"
       gradientUnits="userSpaceOnUse"
       gradientTransform="matrix(-0.04590543,2.9990129,-3.2916965,-0.05037467,517.82876,-201.36528)"
       cx="110"
       cy="122.36218"
       fx="110"
       fy="122.36218"
       r="62.642857" />
  </defs>
  <sodipodi:namedview
     id="base"
     pagecolor="#ffffff"
     bordercolor="#666666"
     borderopacity="1.0"
     inkscape:pageopacity="0.0"
     inkscape:pageshadow="2"
     inkscape:zoom="0.9899495"
     inkscape:cx="181.08152"
     inkscape:cy="696.15675"
     inkscape:document-units="px"
     inkscape:current-layer="layer1"
     showgrid="false"
     inkscape:window-width="1280"
     inkscape:window-height="962"
     inkscape:window-x="-8"
     inkscape:window-y="-8"
     inkscape:window-maximized="1"
     showguides="true"
     inkscape:guide-bbox="true" />
  <metadata
     id="metadata3111">
    <rdf:RDF>
      <cc:Work
         rdf:about="">
        <dc:format>image/svg+xml</dc:format>
        <dc:type
           rdf:resource="http://purl.org/dc/dcmitype/StillImage" />
        <dc:title />
      </cc:Work>
    </rdf:RDF>
  </metadata>
  <g
     inkscape:label="Layer 1"
     inkscape:groupmode="layer"
     id="layer1">
    <path
       sodipodi:type="arc"
       style="fill:url(#radialGradient3904);stroke:#000000;stroke-opacity:1;fill-opacity:1"
       id="path3114"
       sodipodi:cx="112.14286"
       sodipodi:cy="122.36218"
       sodipodi:rx="62.142857"
       sodipodi:ry="62.142857"
       d="m 174.28572,122.36218 a 62.142857,62.142857 0 1 1 -124.285716,0 62.142857,62.142857 0 1 1 124.285716,0 z"
       inkscape:export-filename="/home/spin/workspace/MetalTutles/res/drawable/zoomout.png"
       inkscape:export-xdpi="40.947868"
       inkscape:export-ydpi="40.947868" />
    <path
       sodipodi:type="arc"
       style="fill:#777777;fill-opacity:0.71794876;stroke:#000000;stroke-opacity:1"
       id="path3884"
       sodipodi:cx="112.14286"
       sodipodi:cy="122.36218"
       sodipodi:rx="53.57143"
       sodipodi:ry="53.57143"
       d="m 165.71429,122.36218 a 53.57143,53.57143 0 1 1 -107.14286,0 53.57143,53.57143 0 1 1 107.14286,0 z"
       inkscape:export-filename="/home/spin/workspace/MetalTutles/res/drawable/zoomout.png"
       inkscape:export-xdpi="40.947868"
       inkscape:export-ydpi="40.947868" />
    <rect
       style="fill:#e6e6e6;fill-opacity:0.71794876;stroke:#000000;stroke-opacity:1"
       id="rect3906"
       width="64.285713"
       height="19.285715"
       x="80"
       y="112.71932"
       ry="9.175704"
       inkscape:export-filename="/home/spin/workspace/MetalTutles/res/drawable/zoomout.png"
       inkscape:export-xdpi="40.947868"
       inkscape:export-ydpi="40.947868" />
    <path
       d="m 174.28572,122.36218 a 62.142857,62.142857 0 1 1 -124.285716,0 62.142857,62.142857 0 1 1 124.285716,0 z"
       sodipodi:ry="62.142857"
       sodipodi:rx="62.142857"
       sodipodi:cy="122.36218"
       sodipodi:cx="112.14286"
       id="path3927"
       style="fill:url(#radialGradient3933);fill-opacity:1;stroke:#000000;stroke-opacity:1"
       sodipodi:type="arc"
       transform="translate(175,0)"
       inkscape:export-filename="/home/spin/workspace/MetalTutles/res/drawable/zoomin.png"
       inkscape:export-xdpi="40.947868"
       inkscape:export-ydpi="40.947868" />
    <path
       d="m 165.71429,122.36218 a 53.57143,53.57143 0 1 1 -107.14286,0 53.57143,53.57143 0 1 1 107.14286,0 z"
       sodipodi:ry="53.57143"
       sodipodi:rx="53.57143"
       sodipodi:cy="122.36218"
       sodipodi:cx="112.14286"
       id="path3929"
       style="fill:#777777;fill-opacity:0.71794876;stroke:#000000;stroke-opacity:1"
       sodipodi:type="arc"
       transform="translate(175,0)"
       inkscape:export-filename="/home/spin/workspace/MetalTutles/res/drawable/zoomin.png"
       inkscape:export-xdpi="40.947868"
       inkscape:export-ydpi="40.947868" />
    <path
       style="fill:#e6e6e6;fill-opacity:0.71794876;stroke:#000000;stroke-opacity:1"
       d="m 286.67411,90.221556 c -5.08334,0 -9.1875,4.10416 -9.1875,9.1875 l 0,13.312504 -13.3125,0 c -5.08334,0 -9.1875,4.10416 -9.1875,9.1875 l 0,0.9375 c 0,5.08334 4.10416,9.15625 9.1875,9.15625 l 13.3125,0 0,13.34375 c 0,5.08334 4.10416,9.15625 9.1875,9.15625 l 0.9375,0 c 5.08334,0 9.1875,-4.07291 9.1875,-9.15625 l 0,-13.34375 13.3125,0 c 5.08334,0 9.1875,-4.07291 9.1875,-9.15625 l 0,-0.9375 c 0,-5.08334 -4.10416,-9.1875 -9.1875,-9.1875 l -13.3125,0 0,-13.312504 c 0,-5.08334 -4.10416,-9.1875 -9.1875,-9.1875 l -0.9375,0 z"
       id="rect3931"
       inkscape:connector-curvature="0"
       inkscape:export-filename="/home/spin/workspace/MetalTutles/res/drawable/zoomin.png"
       inkscape:export-xdpi="40.947868"
       inkscape:export-ydpi="40.947868" />
    <path
       inkscape:export-ydpi="40.947868"
       inkscape:export-xdpi="40.947868"
       inkscape:export-filename="/home/spin/workspace/MetalTutles/res/drawable/play.png"
       transform="translate(360,0)"
       sodipodi:type="arc"
       style="fill:url(#radialGradient3963);fill-opacity:1;stroke:#000000;stroke-opacity:1"
       id="path3957"
       sodipodi:cx="112.14286"
       sodipodi:cy="122.36218"
       sodipodi:rx="62.142857"
       sodipodi:ry="62.142857"
       d="m 174.28572,122.36218 a 62.142857,62.142857 0 1 1 -124.285716,0 62.142857,62.142857 0 1 1 124.285716,0 z" />
    <path
       inkscape:export-ydpi="40.947868"
       inkscape:export-xdpi="40.947868"
       inkscape:export-filename="/home/spin/workspace/MetalTutles/res/drawable/play.png"
       transform="translate(360,0)"
       sodipodi:type="arc"
       style="fill:#777777;fill-opacity:0.71794876;stroke:#000000;stroke-opacity:1"
       id="path3959"
       sodipodi:cx="112.14286"
       sodipodi:cy="122.36218"
       sodipodi:rx="53.57143"
       sodipodi:ry="53.57143"
       d="m 165.71429,122.36218 a 53.57143,53.57143 0 1 1 -107.14286,0 53.57143,53.57143 0 1 1 107.14286,0 z" />
    <path
       style="fill:#e6e6e6;fill-opacity:0.71794876;stroke:#000000;stroke-width:0.81683218;stroke-opacity:1"
       d="m 451.68694,90.309751 c -1.61454,0 -3.22274,0.31842 -4.625,0.9375 -0.006,0.0053 -0.0251,-0.0053 -0.0312,0 -1.51868,1.31078 -2.46875,3.26477 -2.46875,5.4375 l 0,50.656249 c 0,3.36726 2.31525,6.16586 5.4375,6.9375 0.0326,0.004 0.0611,0.027 0.0937,0.0312 2.65159,0.34393 5.50059,-0.15551 7.5625,-1.53125 l 39.59375,-26.4375 c 3.29905,-2.20118 3.29905,-5.73632 0,-7.9375 L 457.65569,91.966001 c -1.64953,-1.10059 -3.81603,-1.65625 -5.96875,-1.65625 z"
       id="rect3971"
       inkscape:connector-curvature="0"
       inkscape:export-filename="/home/spin/workspace/MetalTutles/res/drawable/play.png"
       inkscape:export-xdpi="40"
       inkscape:export-ydpi="40" />
    <path
       inkscape:export-ydpi="40.947868"
       inkscape:export-xdpi="40.947868"
       inkscape:export-filename="/home/spin/workspace/MetalTutles/res/drawable/tankorder.png"
       transform="matrix(0,1,1,0,522.63781,9.50503)"
       sodipodi:type="arc"
       style="fill:url(#radialGradient3022);fill-opacity:1;stroke:#000000;stroke-opacity:1"
       id="path3957-5"
       sodipodi:cx="112.14286"
       sodipodi:cy="122.36218"
       sodipodi:rx="62.142857"
       sodipodi:ry="62.142857"
       d="m 174.28572,122.36218 a 62.142857,62.142857 0 1 1 -124.285716,0 62.142857,62.142857 0 1 1 124.285716,0 z" />
    <path
       inkscape:export-ydpi="40.947868"
       inkscape:export-xdpi="40.947868"
       inkscape:export-filename="/home/spin/workspace/MetalTutles/res/drawable/tankorder.png"
       transform="matrix(0,1,1,0,522.63781,9.50503)"
       sodipodi:type="arc"
       style="fill:#777777;fill-opacity:0.71794876;stroke:#000000;stroke-opacity:1"
       id="path3959-7"
       sodipodi:cx="112.14286"
       sodipodi:cy="122.36218"
       sodipodi:rx="53.57143"
       sodipodi:ry="53.57143"
       d="m 165.71429,122.36218 a 53.57143,53.57143 0 1 1 -107.14286,0 53.57143,53.57143 0 1 1 107.14286,0 z" />
    <rect
       style="fill:#e6e6e6;fill-opacity:0.71794876;stroke:#000000;stroke-width:0.74158651;stroke-opacity:1"
       id="rect3013"
       width="55.618988"
       height="64.62397"
       x="93.838402"
       y="619.71991"
       ry="5.3088665"
       transform="matrix(0,1,1,0,0,0)"
       inkscape:export-filename="/home/spin/workspace/MetalTutles/res/drawable/tankorder.png"
       inkscape:export-xdpi="40"
       inkscape:export-ydpi="40" />
    <path
       style="fill:#e6e6e6;fill-opacity:0.71794876;stroke:#000000;stroke-width:0.74158651;stroke-opacity:1"
       d="m 597.6561,121.63227 c 0,-1.61401 1.29224,-2.90625 2.90625,-2.90625 l 34.4375,0 c 1.38448,-7.96931 8.32221,-14.03125 16.6875,-14.03125 9.36153,0 16.9375,7.57597 16.9375,16.9375 0,9.36153 -7.57597,16.96875 -16.9375,16.96875 -8.37583,0 -15.31533,-6.07833 -16.6875,-14.0625 l -34.4375,0 c -1.61401,0 -2.90625,-1.29224 -2.90625,-2.90625 z"
       id="path3015"
       inkscape:connector-curvature="0"
       inkscape:export-filename="/home/spin/workspace/MetalTutles/res/drawable/tankordergun.png"
       inkscape:export-xdpi="40"
       inkscape:export-ydpi="40" />
    <path
       style="fill:#e6e6e6;fill-opacity:0.71794876;stroke:#000000;stroke-opacity:1"
       d="m 118.88449,272.45264 c 1.61454,0 3.22274,0.31842 4.625,0.9375 0.006,0.005 0.0252,-0.005 0.0312,0 1.51868,1.31078 2.46875,3.26477 2.46875,5.4375 l 0,16.03125 16.8125,0 c 5.08334,0 9.1875,4.10416 9.1875,9.1875 l 0,0.9375 c 0,5.08334 -4.10416,9.15625 -9.1875,9.15625 l -16.8125,0 0,15.34375 c 0,3.36726 -2.31525,6.16586 -5.4375,6.9375 -0.0326,0.004 -0.0611,0.0271 -0.0937,0.0312 -2.65159,0.34393 -5.50059,-0.15551 -7.5625,-1.53125 l -39.593746,-26.4375 c -3.29905,-2.20118 -3.29905,-5.73632 0,-7.9375 l 39.593746,-26.4375 c 1.64953,-1.10059 3.81603,-1.65625 5.96875,-1.65625 z"
       id="rect3906-8"
       inkscape:connector-curvature="0"
       inkscape:export-filename="/home/spin/workspace/MetalTutles/res/drawable/tankordergunorder.png"
       inkscape:export-xdpi="40"
       inkscape:export-ydpi="40" />
    <g
       id="g3088"
       transform="translate(-2.0203051,-1.0101525)">
      <g
         inkscape:export-ydpi="40.229485"
         inkscape:export-xdpi="40.229485"
         inkscape:export-filename="C:\Users\spin\Dropbox\Projects\Java\Android\MetalTurtles\res\drawable\fire.png"
         id="g3856">
        <path
           transform="translate(177.85714,181.42857)"
           sodipodi:type="arc"
           style="fill:url(#radialGradient3097);fill-opacity:1;stroke:#000000;stroke-opacity:1"
           id="path3114-8"
           sodipodi:cx="112.14286"
           sodipodi:cy="122.36218"
           sodipodi:rx="62.142857"
           sodipodi:ry="62.142857"
           d="m 174.28572,122.36218 c 0,34.32055 -27.82231,62.14286 -62.14286,62.14286 -34.320552,0 -62.142856,-27.82231 -62.142856,-62.14286 0,-34.320549 27.822304,-62.142854 62.142856,-62.142854 34.32055,0 62.14286,27.822305 62.14286,62.142854 z"
           inkscape:export-filename="/home/spin/workspace/MetalTutles/res/drawable/zoomout.png"
           inkscape:export-xdpi="40.947868"
           inkscape:export-ydpi="40.947868" />
        <path
           transform="translate(177.85714,181.42857)"
           sodipodi:type="arc"
           style="fill:#ff0000;fill-opacity:0.80952382;stroke:#000000;stroke-opacity:1"
           id="path3884-8"
           sodipodi:cx="112.14286"
           sodipodi:cy="122.36218"
           sodipodi:rx="53.57143"
           sodipodi:ry="53.57143"
           d="m 165.71429,122.36218 c 0,29.58669 -23.98475,53.57143 -53.57143,53.57143 -29.586684,0 -53.57143,-23.98474 -53.57143,-53.57143 0,-29.586681 23.984746,-53.571428 53.57143,-53.571428 29.58668,0 53.57143,23.984747 53.57143,53.571428 z"
           inkscape:export-filename="/home/spin/workspace/MetalTutles/res/drawable/zoomout.png"
           inkscape:export-xdpi="40.947868"
           inkscape:export-ydpi="40.947868" />
      </g>
      <flowRoot
         inkscape:export-ydpi="40.229485"
         inkscape:export-xdpi="40.229485"
         inkscape:export-filename="C:\Users\spin\Dropbox\Projects\Java\Android\MetalTurtles\res\drawable\fire.png"
         transform="translate(55.441407,26.387345)"
         style="font-size:40px;font-style:normal;font-variant:normal;font-weight:bold;font-stretch:normal;line-height:125%;letter-spacing:0px;word-spacing:0px;fill:#d1d1d1;fill-opacity:0.99607843;stroke:none;font-family:Arial;-inkscape-font-specification:Arial Bold"
         id="flowRoot3821"
         xml:space="preserve"><flowRegion
           id="flowRegion3823"><rect
             style="fill:#d1d1d1;fill-opacity:0.99607843"
             y="258.07648"
             x="197.14285"
             height="78.571426"
             width="150"
             id="rect3825" /></flowRegion><flowPara
           id="flowPara3827">Fire</flowPara></flowRoot>    </g>
    <path
       style="fill:none;stroke:url(#linearGradient3957);stroke-width:0.84292029999999984px;stroke-linecap:butt;stroke-linejoin:miter;stroke-opacity:1"
       d="m 443.27497,271.22821 c -5.91285,0 -10.72089,8.16201 -10.72089,18.22815 0,0.90263 0.0572,1.79298 0.13171,2.66046 l 0,56.44932 1.55413,0 0,3.39802 -1.55413,0 0,4.92581 21.17837,0 0,-4.92581 -1.76487,0 0,-3.39802 1.76487,0 0,-56.63371 c 0.0645,-0.80876 0.10536,-1.63724 0.10536,-2.47608 0,-10.06614 -4.7817,-18.22815 -10.69455,-18.22815 z"
       id="rect3849"
       inkscape:connector-curvature="0"
       inkscape:export-filename="C:\Users\spin\Dropbox\Projects\Java\Android\MetalTurtles\res\drawable\reloadgauge.png"
       inkscape:export-xdpi="58.08725"
       inkscape:export-ydpi="58.08725" />
    <path
       inkscape:connector-curvature="0"
       style="fill:none;stroke:url(#linearGradient3955);stroke-width:0.84292029999999984px;stroke-linecap:butt;stroke-linejoin:miter;stroke-opacity:1"
       d="m 468.56782,271.2282 c -5.91285,0 -10.72089,8.16202 -10.72089,18.22816 0,0.90263 0.0572,1.79299 0.13171,2.66046 l 0,56.44932 1.55413,0 0,3.39802 -1.55413,0 0,4.92582 21.17837,0 0,-4.92582 -1.76487,0 0,-3.39802 1.76487,0 0,-56.63371 c 0.0645,-0.80875 0.10536,-1.63723 0.10536,-2.47607 0,-10.06614 -4.7817,-18.22816 -10.69455,-18.22816 z"
       id="rect3849-1"
       inkscape:export-filename="C:\Users\spin\Dropbox\Projects\Java\Android\MetalTurtles\res\drawable\reloadgauge.png"
       inkscape:export-xdpi="58.08725"
       inkscape:export-ydpi="58.08725" />
    <path
       inkscape:connector-curvature="0"
       style="fill:none;stroke:url(#linearGradient3953);stroke-width:0.84292029999999984px;stroke-linecap:butt;stroke-linejoin:miter;stroke-opacity:1"
       d="m 493.86067,271.22821 c -5.91285,0 -10.72089,8.16201 -10.72089,18.22815 0,0.90263 0.0572,1.79299 0.13171,2.66046 l 0,56.44932 1.55413,0 0,3.39802 -1.55413,0 0,4.92582 21.17837,0 0,-4.92582 -1.76486,0 0,-3.39802 1.76486,0 0,-56.6337 c 0.0645,-0.80876 0.10537,-1.63724 0.10537,-2.47608 0,-10.06614 -4.78171,-18.22815 -10.69456,-18.22815 z"
       id="rect3849-7"
       inkscape:export-filename="C:\Users\spin\Dropbox\Projects\Java\Android\MetalTurtles\res\drawable\reloadgauge.png"
       inkscape:export-xdpi="58.08725"
       inkscape:export-ydpi="58.08725" />
    <g
       id="g3993"
       transform="translate(-2.2189808,0.132755)"
       inkscape:export-filename="C:\Users\spin\Dropbox\Projects\Java\Android\MetalTurtles\res\drawable\reloadgauge.png"
       inkscape:export-xdpi="58.08725"
       inkscape:export-ydpi="58.08725">
      <path
         inkscape:connector-curvature="0"
         id="path3977"
         d="m 532.03118,289.8125 -21.34375,0 c 0.0177,0.70694 0.035,1.41004 0.0937,2.09375 l 0,56.46875 1.5625,0 0,3.375 -1.5625,0 0,4.9375 21.1875,0 0,-4.9375 -1.78125,0 0,-3.375 1.78125,0 0,-56.65625 c 0.0498,-0.62436 0.0488,-1.26269 0.0625,-1.90625 z"
         style="fill:url(#linearGradient3983);fill-opacity:1;stroke:#000000;stroke-width:0.8429203px;stroke-linecap:butt;stroke-linejoin:miter;stroke-opacity:1" />
      <path
         inkscape:connector-curvature="0"
         id="path3975"
         d="m 532.0625,289.32142 c -0.005,-2.4926 -0.30843,-4.87033 -0.84375,-7.03125 -0.54001,-2.17986 -1.31487,-4.13304 -2.28125,-5.78125 -0.48319,-0.8241 -1.02527,-1.59536 -1.59375,-2.25 -0.56848,-0.65464 -1.17294,-1.19545 -1.8125,-1.65625 -0.63956,-0.4608 -1.30356,-0.81992 -2,-1.0625 -0.69644,-0.24258 -1.41714,-0.375 -2.15625,-0.375 -0.73911,0 -1.45896,0.13242 -2.15625,0.375 -0.69729,0.24258 -1.39023,0.6017 -2.03125,1.0625 -0.64102,0.4608 -1.24219,1.00161 -1.8125,1.65625 -0.57031,0.65464 -1.1086,1.4259 -1.59375,2.25 -0.97029,1.64821 -1.73831,3.60139 -2.28125,5.78125 -0.53587,2.15145 -0.83603,4.51935 -0.84375,7 3.2e-4,0.0317 -4.5e-4,0.0621 0,0.0937 10e-4,0.085 0.0291,0.16527 0.0312,0.25 l 21.34375,0 c 0.002,-0.0847 0.0302,-0.16506 0.0312,-0.25 2.5e-4,-0.0211 -2e-4,-0.0414 0,-0.0625 z"
         style="fill:url(#linearGradient3979);fill-opacity:1;stroke:#000000;stroke-width:0.8429203px;stroke-linecap:butt;stroke-linejoin:miter;stroke-opacity:1" />
      <rect
         y="347.71933"
         x="512.60931"
         height="4.6428571"
         width="17.5"
         id="rect3930"
         style="fill:#000000;fill-opacity:1;stroke:none" />
    </g>
    <g
       transform="translate(23.073885,0.132755)"
       id="g3993-4"
       inkscape:export-filename="C:\Users\spin\Dropbox\Projects\Java\Android\MetalTurtles\res\drawable\reloadgauge.png"
       inkscape:export-xdpi="58.08725"
       inkscape:export-ydpi="58.08725">
      <path
         inkscape:connector-curvature="0"
         id="path3977-2"
         d="m 532.03118,289.8125 -21.34375,0 c 0.0177,0.70694 0.035,1.41004 0.0937,2.09375 l 0,56.46875 1.5625,0 0,3.375 -1.5625,0 0,4.9375 21.1875,0 0,-4.9375 -1.78125,0 0,-3.375 1.78125,0 0,-56.65625 c 0.0498,-0.62436 0.0488,-1.26269 0.0625,-1.90625 z"
         style="fill:url(#linearGradient3983-5);fill-opacity:1;stroke:#000000;stroke-width:0.8429203px;stroke-linecap:butt;stroke-linejoin:miter;stroke-opacity:1" />
      <path
         inkscape:connector-curvature="0"
         id="path3975-3"
         d="m 532.0625,289.32142 c -0.005,-2.4926 -0.30843,-4.87033 -0.84375,-7.03125 -0.54001,-2.17986 -1.31487,-4.13304 -2.28125,-5.78125 -0.48319,-0.8241 -1.02527,-1.59536 -1.59375,-2.25 -0.56848,-0.65464 -1.17294,-1.19545 -1.8125,-1.65625 -0.63956,-0.4608 -1.30356,-0.81992 -2,-1.0625 -0.69644,-0.24258 -1.41714,-0.375 -2.15625,-0.375 -0.73911,0 -1.45896,0.13242 -2.15625,0.375 -0.69729,0.24258 -1.39023,0.6017 -2.03125,1.0625 -0.64102,0.4608 -1.24219,1.00161 -1.8125,1.65625 -0.57031,0.65464 -1.1086,1.4259 -1.59375,2.25 -0.97029,1.64821 -1.73831,3.60139 -2.28125,5.78125 -0.53587,2.15145 -0.83603,4.51935 -0.84375,7 3.2e-4,0.0317 -4.5e-4,0.0621 0,0.0937 10e-4,0.085 0.0291,0.16527 0.0312,0.25 l 21.34375,0 c 0.002,-0.0847 0.0302,-0.16506 0.0312,-0.25 2.5e-4,-0.0211 -2e-4,-0.0414 0,-0.0625 z"
         style="fill:url(#linearGradient3979-5);fill-opacity:1;stroke:#000000;stroke-width:0.8429203px;stroke-linecap:butt;stroke-linejoin:miter;stroke-opacity:1" />
      <rect
         y="347.71933"
         x="512.60931"
         height="4.6428571"
         width="17.5"
         id="rect3930-2"
         style="fill:#000000;fill-opacity:1;stroke:none" />
    </g>
    <g
       transform="translate(48.366735,0.132755)"
       id="g3993-9"
       inkscape:export-filename="C:\Users\spin\Dropbox\Projects\Java\Android\MetalTurtles\res\drawable\reloadgauge.png"
       inkscape:export-xdpi="58.08725"
       inkscape:export-ydpi="58.08725">
      <path
         inkscape:connector-curvature="0"
         id="path3977-5"
         d="m 532.03118,289.8125 -21.34375,0 c 0.0177,0.70694 0.035,1.41004 0.0937,2.09375 l 0,56.46875 1.5625,0 0,3.375 -1.5625,0 0,4.9375 21.1875,0 0,-4.9375 -1.78125,0 0,-3.375 1.78125,0 0,-56.65625 c 0.0498,-0.62436 0.0488,-1.26269 0.0625,-1.90625 z"
         style="fill:url(#linearGradient3983-2);fill-opacity:1;stroke:#000000;stroke-width:0.8429203px;stroke-linecap:butt;stroke-linejoin:miter;stroke-opacity:1" />
      <path
         inkscape:connector-curvature="0"
         id="path3975-4"
         d="m 532.0625,289.32142 c -0.005,-2.4926 -0.30843,-4.87033 -0.84375,-7.03125 -0.54001,-2.17986 -1.31487,-4.13304 -2.28125,-5.78125 -0.48319,-0.8241 -1.02527,-1.59536 -1.59375,-2.25 -0.56848,-0.65464 -1.17294,-1.19545 -1.8125,-1.65625 -0.63956,-0.4608 -1.30356,-0.81992 -2,-1.0625 -0.69644,-0.24258 -1.41714,-0.375 -2.15625,-0.375 -0.73911,0 -1.45896,0.13242 -2.15625,0.375 -0.69729,0.24258 -1.39023,0.6017 -2.03125,1.0625 -0.64102,0.4608 -1.24219,1.00161 -1.8125,1.65625 -0.57031,0.65464 -1.1086,1.4259 -1.59375,2.25 -0.97029,1.64821 -1.73831,3.60139 -2.28125,5.78125 -0.53587,2.15145 -0.83603,4.51935 -0.84375,7 3.2e-4,0.0317 -4.5e-4,0.0621 0,0.0937 10e-4,0.085 0.0291,0.16527 0.0312,0.25 l 21.34375,0 c 0.002,-0.0847 0.0302,-0.16506 0.0312,-0.25 2.5e-4,-0.0211 -2e-4,-0.0414 0,-0.0625 z"
         style="fill:url(#linearGradient3979-1);fill-opacity:1;stroke:#000000;stroke-width:0.8429203px;stroke-linecap:butt;stroke-linejoin:miter;stroke-opacity:1" />
      <rect
         y="347.71933"
         x="512.60931"
         height="4.6428571"
         width="17.5"
         id="rect3930-3"
         style="fill:#000000;fill-opacity:1;stroke:none" />
    </g>
    <g
       sodipodi:type="inkscape:box3d"
       style="fill:#808080;stroke:#ffb369;stroke-width:1.20000005;stroke-miterlimit:4.4000001;stroke-opacity:1;stroke-dasharray:none"
       id="g3101"
       inkscape:perspectiveID="#perspective3099"
       inkscape:corner0="2.1212541 : 0.4404084 : 0 : 1"
       inkscape:corner7="1.1941474 : 0.38377831 : 1.2280211 : 1">
      <path
         sodipodi:type="inkscape:box3dside"
         id="path3113"
         style="fill:#808080;fill-rule:evenodd;stroke:none"
         inkscape:box3dsidetype="11"
         d="m 284.46185,522.33441 -40.9335,11.45166 0,-16.54801 40.9335,-7.92423 z" />
      <path
         sodipodi:type="inkscape:box3dside"
         id="path3103"
         style="fill:#808080;fill-rule:evenodd;stroke:none"
         inkscape:box3dsidetype="6"
         d="m 337.43694,532.60643 0,-18.14338 -52.97509,-5.14922 0,13.02058 z" />
      <path
         sodipodi:type="inkscape:box3dside"
         id="path3105"
         style="fill:#808080;fill-rule:evenodd;stroke:none"
         inkscape:box3dsidetype="5"
         d="m 337.43694,532.60643 -41.45927,22.20124 -52.44932,-21.0216 40.9335,-11.45166 z" />
      <path
         sodipodi:type="inkscape:box3dside"
         id="path3111"
         style="fill:#808080;fill-rule:evenodd;stroke:none"
         inkscape:box3dsidetype="13"
         d="m 337.43694,514.46305 -41.45927,14.53501 -52.44932,-11.76 40.9335,-7.92423 z" />
      <path
         sodipodi:type="inkscape:box3dside"
         id="path3109"
         style="fill:#4d4d4d;fill-rule:evenodd;stroke:none"
         inkscape:box3dsidetype="14"
         d="m 295.97767,554.80767 0,-25.80961 -52.44932,-11.76 0,16.54801 z" />
      <path
         sodipodi:type="inkscape:box3dside"
         id="path3107"
         style="fill:#666666;fill-rule:evenodd;stroke:none"
         inkscape:box3dsidetype="3"
         d="m 337.43694,532.60643 -41.45927,22.20124 0,-25.80961 41.45927,-14.53501 z" />
    </g>
    <g
       sodipodi:type="inkscape:box3d"
       style="fill:#666666;fill-opacity:0.99607843;fill-rule:evenodd;stroke:#ffb369;stroke-width:1.20000005;stroke-miterlimit:4.4000001;stroke-opacity:1;stroke-dasharray:none"
       id="g3143"
       inkscape:perspectiveID="#perspective3157"
       inkscape:corner0="1.21818 : 0.36726189 : 0 : 1"
       inkscape:corner7="0.87809358 : 0.344321 : 0.25 : 1">
      <path
         sodipodi:type="inkscape:box3dside"
         id="path3155"
         style="fill:#e9e9ff;fill-rule:evenodd;stroke:none"
         inkscape:box3dsidetype="11"
         d="m 293.64376,511.91628 -24.4546,6.31779 0,-11.08476 24.4546,-4.79043 z" />
      <path
         sodipodi:type="inkscape:box3dside"
         id="path3145"
         style="fill:#353564;fill-rule:evenodd;stroke:none"
         inkscape:box3dsidetype="6"
         d="m 308.6016,514.49884 0,-10.63458 -14.95784,-1.50538 0,9.5574 z" />
      <path
         sodipodi:type="inkscape:box3dside"
         id="path3147"
         style="fill:#4d4d9f;fill-rule:evenodd;stroke:none"
         inkscape:box3dsidetype="5"
         d="m 308.6016,514.49884 -25.00127,7.62642 -14.41117,-3.89119 24.4546,-6.31779 z" />
      <path
         sodipodi:type="inkscape:box3dside"
         id="path3153"
         style="fill:#afafde;fill-rule:evenodd;stroke:none"
         inkscape:box3dsidetype="13"
         d="m 308.6016,503.86426 -25.00127,5.70071 -14.41117,-2.41566 24.4546,-4.79043 z" />
      <path
         sodipodi:type="inkscape:box3dside"
         id="path3151"
         style="fill:#4d4d4d;stroke-width:1.21684301"
         inkscape:box3dsidetype="14"
         d="m 283.60033,522.12526 0,-12.56029 -14.41117,-2.41566 0,11.08476 z" />
      <path
         sodipodi:type="inkscape:box3dside"
         id="path3149"
         style="fill:#666666;stroke-width:1.21684301"
         inkscape:box3dsidetype="3"
         d="m 308.6016,514.49884 -25.00127,7.62642 0,-12.56029 25.00127,-5.70071 z" />
    </g>
    <g
       sodipodi:type="inkscape:box3d"
       style="fill:#666666;fill-opacity:0.99607843;fill-rule:evenodd;stroke:#ffb369;stroke-width:1.20000005;stroke-miterlimit:4.4000001;stroke-opacity:1;stroke-dasharray:none"
       id="g3159"
       inkscape:perspectiveID="#perspective3173"
       inkscape:corner0="0.94122604 : 0.3529761 : 0 : 1"
       inkscape:corner7="0.49955699 : 0.3441527 : 0.058973364 : 1">
      <path
         sodipodi:type="inkscape:box3dside"
         id="path3171"
         style="fill:#e9e9ff;fill-rule:evenodd;stroke:none"
         inkscape:box3dsidetype="11"
         d="m 274.27126,517.05214 -45.77804,10.98307 0,-5.66136 45.77804,-9.73297 z" />
      <path
         sodipodi:type="inkscape:box3dside"
         id="path3161"
         style="fill:#353564;fill-rule:evenodd;stroke:none"
         inkscape:box3dsidetype="6"
         d="m 278.04449,517.73853 0,-4.54527 -3.77323,-0.55238 0,4.41126 z" />
      <path
         sodipodi:type="inkscape:box3dside"
         id="path3163"
         style="fill:#4d4d9f;fill-rule:evenodd;stroke:none"
         inkscape:box3dsidetype="5"
         d="m 278.04449,517.73853 -46.46702,11.61717 -3.08425,-1.32049 45.77804,-10.98307 z" />
      <path
         sodipodi:type="inkscape:box3dside"
         id="path3169"
         style="fill:#afafde;fill-rule:evenodd;stroke:none"
         inkscape:box3dsidetype="13"
         d="m 278.04449,513.19326 -46.46702,10.27843 -3.08425,-1.09784 45.77804,-9.73297 z" />
      <path
         sodipodi:type="inkscape:box3dside"
         id="path3167"
         style="fill:#4d4d4d"
         inkscape:box3dsidetype="14"
         d="m 231.57747,529.3557 0,-5.88401 -3.08425,-1.09784 0,5.66136 z" />
      <path
         sodipodi:type="inkscape:box3dside"
         id="path3165"
         style="fill:#666666"
         inkscape:box3dsidetype="3"
         d="m 278.04449,517.73853 -46.46702,11.61717 0,-5.88401 46.46702,-10.27843 z" />
    </g>
  </g>
</svg>
